C:\Users\SHWETA\Desktop\ScoreCard\scorecard\src\main\java\com\student\grades\scorecardController.java
C:\Users\SHWETA\Desktop\ScoreCard\scorecard\src\main\java\com\student\grades\jsonErrorResponse.java
C:\Users\SHWETA\Desktop\ScoreCard\scorecard\src\main\java\com\student\grades\ExceptionResponse.java
C:\Users\SHWETA\Desktop\ScoreCard\scorecard\src\main\java\com\student\grades\scorecard.java
C:\Users\SHWETA\Desktop\ScoreCard\scorecard\src\main\java\com\student\grades\scorecardApplication.java
